testbench/outputs/tb_processor.vcd
$date
	Thu Feb 27 15:52:17 2025
$end
$version
	Icarus Verilog
$end
$timescale
	1ps
$end
$scope module tb_processor $end
$var reg 1 ! clk $end
$var reg 1 " resetn $end
$scope module processor $end
$var wire 1 ! clk $end
$var wire 1 # pcSrc $end
$var wire 1 " resetn $end
$var wire 1 $ zero $end
$var wire 32 % regWriteData [31:0] $end
$var wire 1 & regWrite $end
$var wire 32 ' reg2data [31:0] $end
$var wire 32 ( pc_next [31:0] $end
$var wire 32 ) pc_add_imm [31:0] $end
$var wire 32 * pc_add_4 [31:0] $end
$var wire 32 + pc [31:0] $end
$var wire 32 , memory_data [31:0] $end
$var wire 1 - memWrite $end
$var wire 1 . memToReg $end
$var wire 1 / memRead $end
$var wire 32 0 instruction [31:0] $end
$var wire 32 1 immediate [31:0] $end
$var wire 1 2 branch $end
$var wire 32 3 alu_result [31:0] $end
$var wire 2 4 alu_op_sel [1:0] $end
$var wire 32 5 alu_op2 [31:0] $end
$var wire 32 6 alu_op1 [31:0] $end
$var wire 4 7 alu_op [3:0] $end
$var wire 1 8 aluSrc $end
$scope module adder1 $end
$var wire 32 9 result [31:0] $end
$var wire 32 : op2 [31:0] $end
$var wire 32 ; op1 [31:0] $end
$scope module alu1 $end
$var wire 4 < alu_op [3:0] $end
$var wire 1 = zero $end
$var wire 32 > result [31:0] $end
$var wire 32 ? op2 [31:0] $end
$var wire 32 @ op1 [31:0] $end
$upscope $end
$upscope $end
$scope module alu1 $end
$var wire 1 $ zero $end
$var wire 32 A result [31:0] $end
$var wire 32 B op2 [31:0] $end
$var wire 32 C op1 [31:0] $end
$var wire 4 D alu_op [3:0] $end
$upscope $end
$scope module alu_ctrl1 $end
$var wire 32 E instruction [31:0] $end
$var wire 2 F alu_op_sel [1:0] $end
$var wire 4 G alu_op [3:0] $end
$upscope $end
$scope module ctrl1 $end
$var wire 1 8 aluSrc $end
$var wire 1 2 branch $end
$var wire 1 / memRead $end
$var wire 1 . memToReg $end
$var wire 1 - memWrite $end
$var wire 7 H opcode [6:0] $end
$var wire 1 & regWrite $end
$var wire 1 I temp1 $end
$var wire 1 J temp2 $end
$var wire 2 K aluOp [1:0] $end
$upscope $end
$scope module dm1 $end
$var wire 32 L addr [31:0] $end
$var wire 1 ! clk $end
$var wire 1 / readEnable $end
$var wire 1 " resetn $end
$var wire 1 - writeEnable $end
$var wire 32 M writeData [31:0] $end
$var wire 32 N readData [31:0] $end
$scope begin $ivl_for_loop0 $end
$var integer 32 O i [31:0] $end
$upscope $end
$upscope $end
$scope module im1 $end
$var wire 1 ! clk $end
$var wire 1 " resetn $end
$var wire 32 P instruction [31:0] $end
$var wire 32 Q address [31:0] $end
$scope begin $ivl_for_loop1 $end
$var integer 32 R i [31:0] $end
$upscope $end
$upscope $end
$scope module imm1 $end
$var wire 32 S instruction [31:0] $end
$var wire 32 T immediate [31:0] $end
$var reg 12 U temp_imm [11:0] $end
$upscope $end
$scope module inc4 $end
$var wire 32 V result [31:0] $end
$var wire 32 W pc [31:0] $end
$scope module adder1 $end
$var wire 32 X op2 [31:0] $end
$var wire 32 Y result [31:0] $end
$var wire 32 Z op1 [31:0] $end
$scope module alu1 $end
$var wire 4 [ alu_op [3:0] $end
$var wire 32 \ op2 [31:0] $end
$var wire 1 ] zero $end
$var wire 32 ^ result [31:0] $end
$var wire 32 _ op1 [31:0] $end
$upscope $end
$upscope $end
$upscope $end
$scope module mux1 $end
$var wire 32 ` op1 [31:0] $end
$var wire 32 a op2 [31:0] $end
$var wire 1 # sel $end
$var wire 32 b out [31:0] $end
$upscope $end
$scope module mux2 $end
$var wire 32 c op2 [31:0] $end
$var wire 1 8 sel $end
$var wire 32 d out [31:0] $end
$var wire 32 e op1 [31:0] $end
$upscope $end
$scope module mux3 $end
$var wire 32 f op1 [31:0] $end
$var wire 32 g op2 [31:0] $end
$var wire 1 . sel $end
$var wire 32 h out [31:0] $end
$upscope $end
$scope module pc1 $end
$var wire 1 ! clk $end
$var wire 32 i pc_next [31:0] $end
$var wire 1 " resetn $end
$var reg 32 j pc_prev [31:0] $end
$upscope $end
$scope module regFile1 $end
$var wire 1 ! clk $end
$var wire 32 k readData1 [31:0] $end
$var wire 32 l readData2 [31:0] $end
$var wire 5 m readReg1 [4:0] $end
$var wire 5 n readReg2 [4:0] $end
$var wire 1 & regWrite $end
$var wire 1 " resetn $end
$var wire 32 o writeData [31:0] $end
$var wire 5 p writeReg [4:0] $end
$upscope $end
$upscope $end
$upscope $end
$enddefinitions $end
$comment Show the parameter values. $end
$dumpall
$end
#0
$dumpvars
bx p
bx o
bx n
bx m
bx l
bx k
bx j
bx i
bx h
bx g
bx f
bx e
bx d
bx c
bx b
bx a
bx `
bx _
bx ^
x]
b100 \
b10 [
bx Z
bx Y
b100 X
bx W
bx V
bx U
bx T
bx S
bx R
bx Q
bx P
bx O
bx N
bx M
bx L
bx K
xJ
xI
bx H
b0xxx G
bx F
bx E
b0xxx D
bx C
bx B
bx A
bx @
bx ?
bx >
x=
b10 <
bx ;
bx :
bx 9
x8
b0xxx 7
bx 6
bx 5
bx 4
bx 3
x2
bx 1
bx 0
x/
x.
x-
bx ,
bx +
bx *
bx )
bx (
bx '
x&
bx %
x$
x#
0"
0!
$end
#5000
b101 %
b101 h
b101 o
b101 ,
b101 N
b101 g
1$
b0 3
b0 A
b0 L
b0 f
1=
b0 )
b0 9
b0 >
b0 a
b100 (
b100 b
b100 i
b10 7
b10 D
b10 G
0#
0J
18
1&
0-
02
0I
1.
1/
0]
b100 *
b100 V
b100 Y
b100 ^
b100 `
b0 5
b0 B
b0 d
b0 4
b0 F
b0 K
b0 1
b0 :
b0 ?
b0 T
b0 c
b0 '
b0 M
b0 e
b0 l
b0 n
b0 6
b0 C
b0 k
b0 m
b1 p
b11 H
b0 U
b10000010000011 0
b10000010000011 E
b10000010000011 P
b10000010000011 S
b0 +
b0 ;
b0 @
b0 Q
b0 W
b0 Z
b0 _
b0 j
b10000000000 O
b10000000000 R
1!
#10000
0!
1"
#15000
b1010 %
b1010 h
b1010 o
b101 5
b101 B
b101 d
b1000 (
b1000 b
b1000 i
0J
08
b0 ,
b0 N
b0 g
0-
0$
b1010 3
b1010 A
b1010 L
b1010 f
b1000 *
b1000 V
b1000 Y
b1000 ^
b1000 `
0.
0/
0=
b100 )
b100 9
b100 >
b100 a
b10 4
b10 F
b10 K
b110011 H
b10 p
b101 6
b101 C
b101 k
b1 m
b101 '
b101 M
b101 e
b101 l
b1 n
b100001000000100110011 0
b100001000000100110011 E
b100001000000100110011 P
b100001000000100110011 S
b100 +
b100 ;
b100 @
b100 Q
b100 W
b100 Z
b100 _
b100 j
1!
#20000
0!
#25000
b1111 %
b1111 h
b1111 o
b1111 3
b1111 A
b1111 L
b1111 f
b1100 (
b1100 b
b1100 i
b1100 *
b1100 V
b1100 Y
b1100 ^
b1100 `
b1000 )
b1000 9
b1000 >
b1000 a
b1010 5
b1010 B
b1010 d
b11 p
b1010 '
b1010 M
b1010 e
b1010 l
b10 n
b1000001000000110110011 0
b1000001000000110110011 E
b1000001000000110110011 P
b1000001000000110110011 S
b1000 +
b1000 ;
b1000 @
b1000 Q
b1000 W
b1000 Z
b1000 _
b1000 j
1!
#30000
0!
#35000
0$
b1010 %
b1010 h
b1010 o
b10000 (
b10000 b
b10000 i
b1010 3
b1010 A
b1010 L
b1010 f
b10000 *
b10000 V
b10000 Y
b10000 ^
b10000 `
b110 7
b110 D
b110 G
b1100 )
b1100 9
b1100 >
b1100 a
b101 5
b101 B
b101 d
b100 p
b101 '
b101 M
b101 e
b101 l
b1 n
b1111 6
b1111 C
b1111 k
b11 m
b1000000000100011000001000110011 0
b1000000000100011000001000110011 E
b1000000000100011000001000110011 P
b1000000000100011000001000110011 S
b1100 +
b1100 ;
b1100 @
b1100 Q
b1100 W
b1100 Z
b1100 _
b1100 j
1!
#40000
0!
#45000
b0 %
b0 h
b0 o
1$
b0 3
b0 A
b0 L
b0 f
b10100 (
b10100 b
b10100 i
b10100 *
b10100 V
b10100 Y
b10100 ^
b10100 `
b0 7
b0 D
b0 G
b10000 )
b10000 9
b10000 >
b10000 a
b101 p
b1010 6
b1010 C
b1010 k
b100 m
b100100111001010110011 0
b100100111001010110011 E
b100100111001010110011 P
b100100111001010110011 S
b10000 +
b10000 ;
b10000 @
b10000 Q
b10000 W
b10000 Z
b10000 _
b10000 j
1!
#50000
0!
#55000
b11000 (
b11000 b
b11000 i
b1111 %
b1111 h
b1111 o
b11000 *
b11000 V
b11000 Y
b11000 ^
b11000 `
b1 7
b1 D
b1 G
0$
b1111 3
b1111 A
b1111 L
b1111 f
b10100 )
b10100 9
b10100 >
b10100 a
b110 p
b1111 6
b1111 C
b1111 k
b11 m
b100011110001100110011 0
b100011110001100110011 E
b100011110001100110011 P
b100011110001100110011 S
b10100 +
b10100 ;
b10100 @
b10100 Q
b10100 W
b10100 Z
b10100 _
b10100 j
1!
#60000
0!
#65000
18
0$
1J
1-
b11100 (
b11100 b
b11100 i
b0 %
b0 h
b0 o
b10 7
b10 D
b10 G
b100 3
b100 A
b100 L
b100 f
b11100 *
b11100 V
b11100 Y
b11100 ^
b11100 `
1.
0&
b11100 )
b11100 9
b11100 >
b11100 a
b0 4
b0 F
b0 K
b100 5
b100 B
b100 d
b100 1
b100 :
b100 ?
b100 T
b100 c
b100011 H
b100 p
b1111 '
b1111 M
b1111 e
b1111 l
b110 n
b0 6
b0 C
b0 k
b0 m
b100 U
b11000000010001000100011 0
b11000000010001000100011 E
b11000000010001000100011 P
b11000000010001000100011 S
b11000 +
b11000 ;
b11000 @
b11000 Q
b11000 W
b11000 Z
b11000 _
b11000 j
1!
#70000
0!
#75000
b1111 %
b1111 h
b1111 o
b100000 (
b100000 b
b100000 i
0J
1&
b1111 ,
b1111 N
b1111 g
0-
b100000 *
b100000 V
b100000 Y
b100000 ^
b100000 `
1/
b100000 )
b100000 9
b100000 >
b100000 a
b11 H
b111 p
b1010 '
b1010 M
b1010 e
b1010 l
b100 n
b10000000010001110000011 0
b10000000010001110000011 E
b10000000010001110000011 P
b10000000010001110000011 S
b11100 +
b11100 ;
b11100 @
b11100 Q
b11100 W
b11100 Z
b11100 _
b11100 j
1!
#80000
0!
#85000
0$
b110 7
b110 D
b110 G
b100100 (
b100100 b
b100100 i
0J
08
b1010 %
b1010 h
b1010 o
b0 ,
b0 N
b0 g
0-
b1010 3
b1010 A
b1010 L
b1010 f
b100100 *
b100100 V
b100100 Y
b100100 ^
b100100 `
0.
0/
b101 5
b101 B
b101 d
b100000 )
b100000 9
b100000 >
b100000 a
b10 4
b10 F
b10 K
b0 1
b0 :
b0 ?
b0 T
b0 c
b110011 H
b1000 p
b101 '
b101 M
b101 e
b101 l
b1 n
b1111 6
b1111 C
b1111 k
b111 m
b0 U
b1000000000100111000010000110011 0
b1000000000100111000010000110011 E
b1000000000100111000010000110011 P
b1000000000100111000010000110011 S
b100000 +
b100000 ;
b100000 @
b100000 Q
b100000 W
b100000 Z
b100000 _
b100000 j
1!
#90000
0!
#95000
b1010 %
b1010 h
b1010 o
b1010 3
b1010 A
b1010 L
b1010 f
b101000 (
b101000 b
b101000 i
b101000 *
b101000 V
b101000 Y
b101000 ^
b101000 `
b1 7
b1 D
b1 G
b100100 )
b100100 9
b100100 >
b100100 a
b1010 5
b1010 B
b1010 d
b1001 p
b1010 '
b1010 M
b1010 e
b1010 l
b10 n
b1010 6
b1010 C
b1010 k
b1000 m
b1001000110010010110011 0
b1001000110010010110011 E
b1001000110010010110011 P
b1001000110010010110011 S
b100100 +
b100100 ;
b100100 @
b100100 Q
b100100 W
b100100 Z
b100100 _
b100100 j
1!
#100000
0!
#105000
b1000 5
b1000 B
b1000 d
18
0$
b1000 3
b1000 A
b1000 L
b1000 f
1J
1-
b101100 (
b101100 b
b101100 i
b0 %
b0 h
b0 o
b10 7
b10 D
b10 G
b101100 *
b101100 V
b101100 Y
b101100 ^
b101100 `
1.
0&
b110000 )
b110000 9
b110000 >
b110000 a
b0 4
b0 F
b0 K
b1000 1
b1000 :
b1000 ?
b1000 T
b1000 c
b1000 p
b100011 H
b1001 n
b0 6
b0 C
b0 k
b0 m
b1000 U
b100100000010010000100011 0
b100100000010010000100011 E
b100100000010010000100011 P
b100100000010010000100011 S
b101000 +
b101000 ;
b101000 @
b101000 Q
b101000 W
b101000 Z
b101000 _
b101000 j
1!
#110000
0!
#115000
b1010 %
b1010 h
b1010 o
b110000 (
b110000 b
b110000 i
0J
1&
b1010 ,
b1010 N
b1010 g
0-
b110000 *
b110000 V
b110000 Y
b110000 ^
b110000 `
1/
b110100 )
b110100 9
b110100 >
b110100 a
b11 H
b1010 p
b1000 n
b100000000010010100000011 0
b100000000010010100000011 E
b100000000010010100000011 P
b100000000010010100000011 S
b101100 +
b101100 ;
b101100 @
b101100 Q
b101100 W
b101100 Z
b101100 _
b101100 j
1!
#120000
0!
#125000
1#
1$
b110 7
b110 D
b110 G
b0 %
b0 h
b0 o
b110000 (
b110000 b
b110000 i
08
0&
b0 ,
b0 N
b0 g
b0 3
b0 A
b0 L
b0 f
b110100 *
b110100 V
b110100 Y
b110100 ^
b110100 `
12
b1 4
b1 F
b1 K
1I
0/
b1010 5
b1010 B
b1010 d
b110000 )
b110000 9
b110000 >
b110000 a
b0 1
b0 :
b0 ?
b0 T
b0 c
b1100011 H
b10100 p
b1001 n
b1010 6
b1010 C
b1010 k
b1010 m
b0 U
b100101010000101001100011 0
b100101010000101001100011 E
b100101010000101001100011 P
b100101010000101001100011 S
b110000 +
b110000 ;
b110000 @
b110000 Q
b110000 W
b110000 Z
b110000 _
b110000 j
1!
