testbench/tb_top.vcd
$date
	Sun Apr 13 10:46:30 2025
$end
$version
	Icarus Verilog
$end
$timescale
	1s
$end
$scope module tb_top $end
$var reg 1 ! clk $end
$var reg 1 " rstn $end
$scope module DUT $end
$var wire 1 ! clk $end
$var wire 1 " resetn $end
$var wire 1 # selectNOP $end
$var wire 5 $ rs2_id [4:0] $end
$var wire 5 % rs2_ex [4:0] $end
$var wire 5 & rs1_id [4:0] $end
$var wire 5 ' rs1_ex [4:0] $end
$var wire 1 ( regWriteWb $end
$var wire 1 ) regWriteMem $end
$var wire 1 * regWriteCtrl $end
$var wire 1 + regWrite $end
$var wire 5 , rd_wb [4:0] $end
$var wire 5 - rd_mem [4:0] $end
$var wire 5 . rd_ex [4:0] $end
$var wire 1 / pcWrite $end
$var wire 1 0 pcSrc $end
$var wire 1 1 memWriteCtrl $end
$var wire 1 2 memWrite $end
$var wire 1 3 memToRegCtrl $end
$var wire 1 4 memToReg $end
$var wire 1 5 memReadEx $end
$var wire 1 6 memReadCtrl $end
$var wire 1 7 memRead $end
$var wire 32 8 instruction [31:0] $end
$var wire 1 9 ifIdWrite $end
$var wire 2 : forwardB [1:0] $end
$var wire 2 ; forwardA [1:0] $end
$var wire 10 < datapathControlSignals [9:0] $end
$var wire 10 = controlSignals [9:0] $end
$var wire 1 > branchCtrl $end
$var wire 1 ? branch $end
$var wire 1 @ IFflush $end
$var wire 1 A ALUSrcCtrl $end
$var wire 1 B ALUSrc $end
$var wire 2 C ALUOpSel [1:0] $end
$var wire 4 D ALUOpCtrl [3:0] $end
$var wire 4 E ALUOp [3:0] $end
$scope module alu_ctrl $end
$var wire 32 F instruction [31:0] $end
$var wire 2 G alu_op_sel [1:0] $end
$var wire 4 H alu_op [3:0] $end
$upscope $end
$scope module ctrl $end
$var wire 7 I opcode [6:0] $end
$var reg 2 J aluOp [1:0] $end
$var reg 1 A aluSrc $end
$var reg 1 > branch $end
$var reg 1 6 memRead $end
$var reg 1 3 memToReg $end
$var reg 1 1 memWrite $end
$var reg 1 * regWrite $end
$upscope $end
$scope module dp $end
$var wire 4 K ALUOp [3:0] $end
$var wire 1 B ALUSrc $end
$var wire 1 ? branch $end
$var wire 1 ! clk $end
$var wire 32 L instruction [31:0] $end
$var wire 1 7 memRead $end
$var wire 1 5 memReadExOut $end
$var wire 1 4 memToReg $end
$var wire 1 2 memWrite $end
$var wire 1 M pcSrc $end
$var wire 1 0 pcsrc $end
$var wire 5 N rdEx [4:0] $end
$var wire 5 O rdMem [4:0] $end
$var wire 5 P rdWb [4:0] $end
$var wire 1 + regWrite $end
$var wire 1 ) regWriteMemm $end
$var wire 1 ( regWriteWbb $end
$var wire 1 " resetn $end
$var wire 5 Q rs1Ex [4:0] $end
$var wire 5 R rs1Id [4:0] $end
$var wire 5 S rs2Ex [4:0] $end
$var wire 5 T rs2Id [4:0] $end
$var wire 32 U writeData [31:0] $end
$var wire 2 V selOp2 [1:0] $end
$var wire 2 W selOp1 [1:0] $end
$var wire 5 X rs2_id [4:0] $end
$var wire 5 Y rs2_ex [4:0] $end
$var wire 32 Z rs2_data_id [31:0] $end
$var wire 32 [ rs2_data_ex [31:0] $end
$var wire 5 \ rs1_id [4:0] $end
$var wire 5 ] rs1_ex [4:0] $end
$var wire 32 ^ rs1_data_id [31:0] $end
$var wire 32 _ rs1_data_ex [31:0] $end
$var wire 1 ` registersIsEqual $end
$var wire 1 a regWriteWb $end
$var wire 1 b regWriteMem $end
$var wire 1 c regWriteEx $end
$var wire 32 d readDataWb [31:0] $end
$var wire 32 e readData [31:0] $end
$var wire 5 f rd_wb [4:0] $end
$var wire 5 g rd_mem [4:0] $end
$var wire 5 h rd_id [4:0] $end
$var wire 5 i rd_ex [4:0] $end
$var wire 32 j pc_plus_imm [31:0] $end
$var wire 32 k pc_if [31:0] $end
$var wire 32 l pc_id [31:0] $end
$var wire 1 / pcWrite $end
$var wire 1 m memWriteMem $end
$var wire 1 n memWriteEx $end
$var wire 1 o memToRegWb $end
$var wire 1 p memToRegMem $end
$var wire 1 q memToRegEx $end
$var wire 1 r memReadMem $end
$var wire 1 s memReadEx $end
$var wire 32 t instruction_if [31:0] $end
$var wire 32 u instruction_id [31:0] $end
$var wire 32 v imm_id [31:0] $end
$var wire 32 w imm_ex [31:0] $end
$var wire 1 9 ifIdWrite $end
$var wire 32 x aluResultWb [31:0] $end
$var wire 32 y aluResultMem [31:0] $end
$var wire 32 z aluResult [31:0] $end
$var wire 32 { aluOperand2Mem [31:0] $end
$var wire 32 | aluOperand2 [31:0] $end
$var wire 1 } ALUSrcEx $end
$var wire 4 ~ ALUOpEx [3:0] $end
$scope module ex1 $end
$var wire 32 !" aluOperand2 [31:0] $end
$var wire 1 ! clk $end
$var wire 1 " resetn $end
$var wire 32 "" wbResult [31:0] $end
$var wire 2 #" selOp2 [1:0] $end
$var wire 2 $" selOp1 [1:0] $end
$var wire 32 %" rs2Data [31:0] $end
$var wire 32 &" rs1Data [31:0] $end
$var wire 32 '" immORrs2 [31:0] $end
$var wire 32 (" imm [31:0] $end
$var wire 32 )" aluResultMem [31:0] $end
$var wire 32 *" aluResult [31:0] $end
$var wire 32 +" aluOp2 [31:0] $end
$var wire 32 ," aluOp1 [31:0] $end
$var wire 1 } ALUSrc $end
$var wire 4 -" ALUOp [3:0] $end
$scope module alu1 $end
$var wire 32 ." op2 [31:0] $end
$var wire 32 /" op1 [31:0] $end
$var wire 4 0" alu_op [3:0] $end
$var reg 32 1" result [31:0] $end
$upscope $end
$scope module mux1 $end
$var wire 32 2" op4 [31:0] $end
$var wire 2 3" sel [1:0] $end
$var wire 32 4" op3 [31:0] $end
$var wire 32 5" op2 [31:0] $end
$var wire 32 6" op1 [31:0] $end
$var reg 32 7" out [31:0] $end
$upscope $end
$scope module mux2 $end
$var wire 1 } sel $end
$var wire 32 8" out [31:0] $end
$var wire 32 9" op2 [31:0] $end
$var wire 32 :" op1 [31:0] $end
$var parameter 32 ;" WIDTH $end
$upscope $end
$scope module mux3 $end
$var wire 32 <" op1 [31:0] $end
$var wire 32 =" op4 [31:0] $end
$var wire 2 >" sel [1:0] $end
$var wire 32 ?" op3 [31:0] $end
$var wire 32 @" op2 [31:0] $end
$var reg 32 A" out [31:0] $end
$upscope $end
$upscope $end
$scope module ex_mem1 $end
$var wire 32 B" aluOperand2 [31:0] $end
$var wire 32 C" aluResult [31:0] $end
$var wire 1 ! clk $end
$var wire 1 " resetn $end
$var wire 1 c regWrite $end
$var wire 5 D" rd [4:0] $end
$var wire 1 n memWrite $end
$var wire 1 q memToReg $end
$var wire 1 s memRead $end
$var reg 32 E" aluOperand2Out [31:0] $end
$var reg 32 F" aluResultOut [31:0] $end
$var reg 1 r memReadOut $end
$var reg 1 p memToRegOut $end
$var reg 1 m memWriteOut $end
$var reg 5 G" rdOut [4:0] $end
$var reg 1 b regWriteOut $end
$upscope $end
$scope module id1 $end
$var wire 1 ! clk $end
$var wire 32 H" imm [31:0] $end
$var wire 1 " resetn $end
$var wire 5 I" writeReg [4:0] $end
$var wire 32 J" rs2Data [31:0] $end
$var wire 5 K" rs2 [4:0] $end
$var wire 32 L" rs1Data [31:0] $end
$var wire 5 M" rs1 [4:0] $end
$var wire 1 ` registersIsEqual $end
$var wire 32 N" regWriteData [31:0] $end
$var wire 1 a regWrite $end
$var wire 5 O" rd [4:0] $end
$var wire 32 P" pc_plus_imm [31:0] $end
$var wire 32 Q" pc [31:0] $end
$var wire 32 R" instruction [31:0] $end
$var wire 32 S" immediate [31:0] $end
$scope module imm1 $end
$var wire 32 T" instruction [31:0] $end
$var wire 32 U" immediate [31:0] $end
$var reg 12 V" temp_imm [11:0] $end
$upscope $end
$scope module regFile1 $end
$var wire 1 ! clk $end
$var wire 5 W" readReg1 [4:0] $end
$var wire 5 X" readReg2 [4:0] $end
$var wire 1 " resetn $end
$var wire 5 Y" writeReg [4:0] $end
$var wire 32 Z" writeData [31:0] $end
$var wire 1 a regWrite $end
$var reg 32 [" readData1 [31:0] $end
$var reg 32 \" readData2 [31:0] $end
$scope begin $ivl_for_loop1 $end
$var integer 32 ]" i [31:0] $end
$upscope $end
$upscope $end
$upscope $end
$scope module id_ex1 $end
$var wire 4 ^" ALUOp [3:0] $end
$var wire 1 B ALUSrc $end
$var wire 1 ! clk $end
$var wire 32 _" imm [31:0] $end
$var wire 1 7 memRead $end
$var wire 1 4 memToReg $end
$var wire 1 2 memWrite $end
$var wire 5 `" rd [4:0] $end
$var wire 1 + regWrite $end
$var wire 1 " resetn $end
$var wire 5 a" rs1 [4:0] $end
$var wire 32 b" rs1Data [31:0] $end
$var wire 5 c" rs2 [4:0] $end
$var wire 32 d" rs2Data [31:0] $end
$var reg 4 e" ALUOpOut [3:0] $end
$var reg 1 } ALUSrcOut $end
$var reg 32 f" immOut [31:0] $end
$var reg 1 s memReadOut $end
$var reg 1 q memToRegOut $end
$var reg 1 n memWriteOut $end
$var reg 5 g" rdOut [4:0] $end
$var reg 1 c regWriteOut $end
$var reg 32 h" rs1DataOut [31:0] $end
$var reg 5 i" rs1Out [4:0] $end
$var reg 32 j" rs2DataOut [31:0] $end
$var reg 5 k" rs2Out [4:0] $end
$upscope $end
$scope module if1 $end
$var wire 1 ! clk $end
$var wire 1 M pcSrc $end
$var wire 32 l" pc_out [31:0] $end
$var wire 32 m" pc_plus_imm [31:0] $end
$var wire 1 " resetn $end
$var wire 32 n" pc_plus_4 [31:0] $end
$var wire 32 o" pc_out_reg [31:0] $end
$var wire 1 / pcWrite $end
$var wire 32 p" pc [31:0] $end
$var wire 32 q" instruction_out [31:0] $end
$scope module im $end
$var wire 1 ! clk $end
$var wire 1 " resetn $end
$var wire 32 r" address [31:0] $end
$var reg 32 s" instruction [31:0] $end
$scope begin $ivl_for_loop2 $end
$var integer 32 t" i [31:0] $end
$upscope $end
$upscope $end
$scope module mux $end
$var wire 32 u" op1 [31:0] $end
$var wire 32 v" op2 [31:0] $end
$var wire 1 M sel $end
$var wire 32 w" out [31:0] $end
$var parameter 32 x" WIDTH $end
$upscope $end
$scope module pc_inst $end
$var wire 1 ! clk $end
$var wire 32 y" pc_next [31:0] $end
$var wire 1 " resetn $end
$var wire 1 / pcWrite $end
$var reg 32 z" pc_prev [31:0] $end
$upscope $end
$upscope $end
$scope module if_id1 $end
$var wire 1 {" IFflush $end
$var wire 1 ! clk $end
$var wire 32 |" instruction [31:0] $end
$var wire 32 }" pc [31:0] $end
$var wire 1 " resetn $end
$var wire 1 9 ifIdWrite $end
$var reg 32 ~" instruction_out [31:0] $end
$var reg 32 !# pc_out [31:0] $end
$upscope $end
$scope module mem1 $end
$var wire 32 "# aluOp2 [31:0] $end
$var wire 32 ## aluResult [31:0] $end
$var wire 1 ! clk $end
$var wire 1 r memRead $end
$var wire 1 m memWrite $end
$var wire 1 " resetn $end
$var wire 32 $# readData [31:0] $end
$scope module dm1 $end
$var wire 32 %# addr [31:0] $end
$var wire 1 ! clk $end
$var wire 1 r readEnable $end
$var wire 1 " resetn $end
$var wire 32 &# writeData [31:0] $end
$var wire 1 m writeEnable $end
$var reg 32 '# readData [31:0] $end
$scope begin $ivl_for_loop0 $end
$var integer 32 (# i [31:0] $end
$upscope $end
$upscope $end
$upscope $end
$scope module mem_wb1 $end
$var wire 32 )# aluResult [31:0] $end
$var wire 1 ! clk $end
$var wire 1 p memToReg $end
$var wire 5 *# rd [4:0] $end
$var wire 32 +# readData [31:0] $end
$var wire 1 b regWrite $end
$var wire 1 " resetn $end
$var reg 32 ,# aluResultOut [31:0] $end
$var reg 1 o memToRegOut $end
$var reg 5 -# rdOut [4:0] $end
$var reg 32 .# readDataOut [31:0] $end
$var reg 1 a regWriteOut $end
$upscope $end
$scope module wb1 $end
$var wire 32 /# aluResult [31:0] $end
$var wire 1 ! clk $end
$var wire 1 o memToReg $end
$var wire 32 0# readData [31:0] $end
$var wire 1 " resetn $end
$var wire 32 1# writeData [31:0] $end
$scope module mux1 $end
$var wire 32 2# op1 [31:0] $end
$var wire 32 3# op2 [31:0] $end
$var wire 1 o sel $end
$var wire 32 4# out [31:0] $end
$var parameter 32 5# WIDTH $end
$upscope $end
$upscope $end
$upscope $end
$scope module fu $end
$var wire 5 6# rd_mem [4:0] $end
$var wire 5 7# rd_wb [4:0] $end
$var wire 1 ) regWriteMem $end
$var wire 1 ( regWriteWb $end
$var wire 5 8# rs1_ex [4:0] $end
$var wire 5 9# rs2_ex [4:0] $end
$var reg 2 :# forwardA [1:0] $end
$var reg 2 ;# forwardB [1:0] $end
$upscope $end
$scope module hdu $end
$var wire 1 5 memReadEx $end
$var wire 1 0 pcSrc $end
$var wire 5 <# rd_ex [4:0] $end
$var wire 5 =# rs1_id [4:0] $end
$var wire 5 ># rs2_id [4:0] $end
$var reg 1 @ IFflush $end
$var reg 1 9 ifIdWrite $end
$var reg 1 / pcWrite $end
$var reg 1 # selectNOP $end
$upscope $end
$scope module mux1 $end
$var wire 10 ?# op1 [9:0] $end
$var wire 10 @# op2 [9:0] $end
$var wire 1 # sel $end
$var wire 10 A# out [9:0] $end
$var parameter 32 B# WIDTH $end
$upscope $end
$upscope $end
$upscope $end
$enddefinitions $end
$comment Show the parameter values. $end
$dumpall
b1010 B#
b100000 5#
b100000 x"
b100000 ;"
$end
#0
$dumpvars
b1000 A#
b0 @#
b1000 ?#
b0 >#
b0 =#
b0 <#
b0 ;#
b0 :#
b0 9#
b0 8#
b0 7#
b0 6#
b0 4#
b0 3#
b0 2#
b0 1#
b0 0#
b0 /#
b0 .#
b0 -#
b0 ,#
bx +#
b0 *#
b0 )#
b10000000000 (#
bx '#
b0 &#
b0 %#
bx $#
b0 ##
b0 "#
b0 !#
b0 ~"
bx }"
bx |"
z{"
bx z"
bx y"
bx w"
b0 v"
bx u"
bx t"
bx s"
bx r"
bx q"
bx p"
bx o"
bx n"
b0 m"
bx l"
b0 k"
b0 j"
b0 i"
b0 h"
b0 g"
b0 f"
b0 e"
bx d"
b0 c"
bx b"
b0 a"
b0 `"
b0 _"
b10 ^"
b100000 ]"
bx \"
bx ["
b0 Z"
b0 Y"
b0 X"
b0 W"
b0 V"
b0 U"
b0 T"
b0 S"
b0 R"
b0 Q"
b0 P"
b0 O"
b0 N"
b0 M"
bx L"
b0 K"
bx J"
b0 I"
b0 H"
b0 G"
b0 F"
b0 E"
b0 D"
b0 C"
b0 B"
b0 A"
b0 @"
b0 ?"
b0 >"
b0 ="
b0 <"
b0 :"
b0 9"
b0 8"
b0 7"
b0 6"
b0 5"
b0 4"
b0 3"
b0 2"
b0 1"
b0 0"
b0 /"
b0 ."
b0 -"
b0 ,"
b0 +"
b0 *"
b0 )"
b0 ("
b0 '"
b0 &"
b0 %"
b0 $"
b0 #"
b0 ""
b0 !"
b0 ~
0}
b0 |
b0 {
b0 z
b0 y
b0 x
b0 w
b0 v
b0 u
bx t
0s
0r
0q
0p
0o
0n
0m
b0 l
bx k
b0 j
b0 i
b0 h
b0 g
b0 f
bx e
b0 d
0c
0b
0a
1`
b0 _
bx ^
b0 ]
b0 \
b0 [
bx Z
b0 Y
b0 X
b0 W
b0 V
b0 U
b0 T
b0 S
b0 R
b0 Q
b0 P
b0 O
b0 N
0M
b0 L
b10 K
b0 J
b0 I
b10 H
b0 G
b0 F
b10 E
b10 D
b0 C
0B
0A
0@
0?
0>
b1000 =
b1000 <
b0 ;
b0 :
19
b0 8
07
06
05
04
03
02
01
00
1/
b0 .
b0 -
b0 ,
0+
0*
0)
0(
b0 '
b0 &
b0 %
b0 $
0#
0"
0!
$end
#5
b100 p"
b100 w"
b100 y"
b100 n"
b100 u"
b0 k
b0 l"
b0 }"
b0 o"
b0 r"
b0 z"
b10000000000 (#
b100000 ]"
b10000000000 t"
1!
#10
b0 e
b0 $#
b0 '#
b0 +#
b0 Z
b0 J"
b0 \"
b0 d"
b0 ^
b0 L"
b0 ["
b0 b"
b100000010000010000011 t
b100000010000010000011 q"
b100000010000010000011 s"
b100000010000010000011 |"
0!
1"
#15
17
1+
14
1B
b101001011 <
b101001011 A#
1A
13
1*
b101001011 =
b101001011 ?#
16
b1 j
b1 P"
b1 m"
b1 v"
b1 v
b1 H"
b1 _"
b1 S"
b1 U"
b1 X"
0`
b1 h
b1 O"
b1 `"
b1 $
b1 T
b1 >#
b1 X
b1 K"
b1 c"
b11 I
b1 V"
b1000 p"
b1000 w"
b1000 y"
b100000010000010000011 8
b100000010000010000011 F
b100000010000010000011 L
b100000010000010000011 u
b100000010000010000011 R"
b100000010000010000011 T"
b100000010000010000011 ~"
b10 ~
b10 -"
b10 0"
b10 e"
b1000 n"
b1000 u"
b100 k
b100 l"
b100 }"
b100 o"
b100 r"
b100 z"
1!
#20
b100001000000100110011 t
b100001000000100110011 q"
b100001000000100110011 s"
b100001000000100110011 |"
0!
#25
b1 z
b1 *"
b1 1"
b1 C"
b1 )#
07
0+
b0 E
b0 K
b0 ^"
04
0B
b1 |
b1 !"
b1 B"
b1 +"
b1 ."
b1 A"
b0 <
b0 A#
0A
03
b10 C
b10 G
b10 J
b1001000 =
b1001000 ?#
06
b0 v
b0 H"
b0 _"
b0 S"
b0 U"
b1 '"
b1 8"
b1 <"
1#
09
0/
b1 W"
1`
b10 h
b10 O"
b10 `"
b1 &
b1 R
b1 =#
b1 \
b1 M"
b1 a"
b110011 I
b0 V"
b1100 p"
b1100 w"
b1100 y"
1c
1q
15
1s
1}
b1 .
b1 N
b1 <#
b1 i
b1 D"
b1 g"
b1 %
b1 S
b1 9#
b1 Y
b1 k"
b1 w
b1 ("
b1 9"
b1 f"
b100001000000100110011 8
b100001000000100110011 F
b100001000000100110011 L
b100001000000100110011 u
b100001000000100110011 R"
b100001000000100110011 T"
b100001000000100110011 ~"
b100 j
b100 P"
b100 m"
b100 v"
b100 l
b100 Q"
b100 !#
b1100 n"
b1100 u"
b1000 k
b1000 l"
b1000 }"
b1000 o"
b1000 r"
b1000 z"
1!
#30
b1000001000000110110011 t
b1000001000000110110011 q"
b1000001000000110110011 s"
b1000001000000110110011 |"
0!
#35
1+
b10 E
b10 K
b10 ^"
b1001000 <
b1001000 A#
b1 ,"
b1 /"
b1 7"
b1 z
b1 *"
b1 1"
b1 C"
b1 )#
0#
19
1/
b0 '"
b0 8"
b0 <"
b10 :
b10 V
b10 #"
b10 >"
b10 ;#
b10 ;
b10 W
b10 $"
b10 3"
b10 :#
b1 U
b1 ""
b1 5"
b1 @"
b1 N"
b1 Z"
b1 1#
b1 4#
0c
0q
05
0s
b0 ~
b0 -"
b0 0"
b0 e"
0}
b10 .
b10 N
b10 <#
b10 i
b10 D"
b10 g"
b1 '
b1 Q
b1 8#
b1 ]
b1 i"
b0 w
b0 ("
b0 9"
b0 f"
1)
1b
1p
1r
b1 {
b1 E"
b1 "#
b1 &#
b1 -
b1 O
b1 6#
b1 g
b1 G"
b1 *#
b1 y
b1 )"
b1 4"
b1 ?"
b1 F"
b1 ##
b1 %#
b1 x
b1 ,#
b1 /#
b1 2#
1!
#40
b101 e
b101 $#
b101 '#
b101 +#
0!
#45
b101 |
b101 !"
b101 B"
b101 +"
b101 ."
b101 A"
b101 ,"
b101 /"
b101 7"
b101 U
b101 ""
b101 5"
b101 @"
b101 N"
b101 Z"
b101 1#
b101 4#
b1 :
b1 V
b1 #"
b1 >"
b1 ;#
b1 ;
b1 W
b1 $"
b1 3"
b1 :#
b1010 z
b1010 *"
b1010 1"
b1010 C"
b1010 )#
b10 X"
0`
b11 h
b11 O"
b11 `"
b10 $
b10 T
b10 >#
b10 X
b10 K"
b10 c"
b10000 p"
b10000 w"
b10000 y"
1(
1a
1o
b1 ,
b1 P
b1 7#
b1 f
b1 I"
b1 Y"
b1 -#
b101 d
b101 .#
b101 0#
b101 3#
0)
0b
0p
0r
b10 -
b10 O
b10 6#
b10 g
b10 G"
b10 *#
1c
b10 ~
b10 -"
b10 0"
b10 e"
b1000001000000110110011 8
b1000001000000110110011 F
b1000001000000110110011 L
b1000001000000110110011 u
b1000001000000110110011 R"
b1000001000000110110011 T"
b1000001000000110110011 ~"
b1000 j
b1000 P"
b1000 m"
b1000 v"
b1000 l
b1000 Q"
b1000 !#
b10000 n"
b10000 u"
b1100 k
b1100 l"
b1100 }"
b1100 o"
b1100 r"
b1100 z"
1!
#50
b0 e
b0 $#
b0 '#
b0 +#
b101 ^
b101 L"
b101 ["
b101 b"
b1000000000100011000001000110011 t
b1000000000100011000001000110011 q"
b1000000000100011000001000110011 s"
b1000000000100011000001000110011 |"
0!
#55
b110 E
b110 K
b110 ^"
b1011000 <
b1011000 A#
b1011000 =
b1011000 ?#
b110 D
b110 H
b1111 z
b1111 *"
b1111 1"
b1111 C"
b1111 )#
b1 X"
b11 W"
b100 h
b100 O"
b100 `"
b1 $
b1 T
b1 >#
b1 X
b1 K"
b1 c"
b11 &
b11 R
b11 =#
b11 \
b11 M"
b11 a"
b1010 |
b1010 !"
b1010 B"
b1010 +"
b1010 ."
b1010 A"
b10 :
b10 V
b10 #"
b10 >"
b10 ;#
b0 ;
b0 W
b0 $"
b0 3"
b0 :#
b1010 U
b1010 ""
b1010 5"
b1010 @"
b1010 N"
b1010 Z"
b1010 1#
b1010 4#
b10100 p"
b10100 w"
b10100 y"
b1000000000100011000001000110011 8
b1000000000100011000001000110011 F
b1000000000100011000001000110011 L
b1000000000100011000001000110011 u
b1000000000100011000001000110011 R"
b1000000000100011000001000110011 T"
b1000000000100011000001000110011 ~"
b1100 j
b1100 P"
b1100 m"
b1100 v"
b1100 l
b1100 Q"
b1100 !#
b11 .
b11 N
b11 <#
b11 i
b11 D"
b11 g"
b10 %
b10 S
b10 9#
b10 Y
b10 k"
b101 _
b101 &"
b101 6"
b101 h"
1)
1b
b101 {
b101 E"
b101 "#
b101 &#
b1010 y
b1010 )"
b1010 4"
b1010 ?"
b1010 F"
b1010 ##
b1010 %#
0(
0a
0o
b10 ,
b10 P
b10 7#
b10 f
b10 I"
b10 Y"
b10 -#
b1010 x
b1010 ,#
b1010 /#
b1010 2#
b0 d
b0 .#
b0 0#
b0 3#
b10100 n"
b10100 u"
b10000 k
b10000 l"
b10000 }"
b10000 o"
b10000 r"
b10000 z"
1!
#60
b100100111001010110011 t
b100100111001010110011 q"
b100100111001010110011 s"
b100100111001010110011 |"
b101 Z
b101 J"
b101 \"
b101 d"
b0 ^
b0 L"
b0 ["
b0 b"
0!
#65
b0 E
b0 K
b0 ^"
b1000000 <
b1000000 A#
b1000000 =
b1000000 ?#
b0 D
b0 H
b1111 U
b1111 ""
b1111 5"
b1111 @"
b1111 N"
b1111 Z"
b1111 1#
b1111 4#
b101 |
b101 !"
b101 B"
b101 +"
b101 ."
b101 A"
b1010 z
b1010 *"
b1010 1"
b1010 C"
b1010 )#
b10 ;
b10 W
b10 $"
b10 3"
b10 :#
b0 :
b0 V
b0 #"
b0 >"
b0 ;#
b101 '"
b101 8"
b101 <"
b1111 ,"
b1111 /"
b1111 7"
b100 W"
b101 h
b101 O"
b101 `"
b100 &
b100 R
b100 =#
b100 \
b100 M"
b100 a"
b11000 p"
b11000 w"
b11000 y"
1(
1a
b1111 x
b1111 ,#
b1111 /#
b1111 2#
b1010 {
b1010 E"
b1010 "#
b1010 &#
b11 -
b11 O
b11 6#
b11 g
b11 G"
b11 *#
b1111 y
b1111 )"
b1111 4"
b1111 ?"
b1111 F"
b1111 ##
b1111 %#
b110 ~
b110 -"
b110 0"
b110 e"
b100 .
b100 N
b100 <#
b100 i
b100 D"
b100 g"
b1 %
b1 S
b1 9#
b1 Y
b1 k"
b11 '
b11 Q
b11 8#
b11 ]
b11 i"
b101 [
b101 %"
b101 :"
b101 j"
b0 _
b0 &"
b0 6"
b0 h"
b100100111001010110011 8
b100100111001010110011 F
b100100111001010110011 L
b100100111001010110011 u
b100100111001010110011 R"
b100100111001010110011 T"
b100100111001010110011 ~"
b10000 j
b10000 P"
b10000 m"
b10000 v"
b10000 l
b10000 Q"
b10000 !#
b11000 n"
b11000 u"
b10100 k
b10100 l"
b10100 }"
b10100 o"
b10100 r"
b10100 z"
1!
#70
b100011110001100110011 t
b100011110001100110011 q"
b100011110001100110011 s"
b100011110001100110011 |"
0!
#75
b1 E
b1 K
b1 ^"
b1000100 <
b1000100 A#
b1000100 =
b1000100 ?#
b1 D
b1 H
b11 W"
b110 h
b110 O"
b110 `"
b11 &
b11 R
b11 =#
b11 \
b11 M"
b11 a"
b0 z
b0 *"
b0 1"
b0 C"
b0 )#
b1010 ,"
b1010 /"
b1010 7"
b10 ;
b10 W
b10 $"
b10 3"
b10 :#
b1010 U
b1010 ""
b1010 5"
b1010 @"
b1010 N"
b1010 Z"
b1010 1#
b1010 4#
b11100 p"
b11100 w"
b11100 y"
b100011110001100110011 8
b100011110001100110011 F
b100011110001100110011 L
b100011110001100110011 u
b100011110001100110011 R"
b100011110001100110011 T"
b100011110001100110011 ~"
b10100 j
b10100 P"
b10100 m"
b10100 v"
b10100 l
b10100 Q"
b10100 !#
b0 ~
b0 -"
b0 0"
b0 e"
b101 .
b101 N
b101 <#
b101 i
b101 D"
b101 g"
b100 '
b100 Q
b100 8#
b100 ]
b100 i"
b101 {
b101 E"
b101 "#
b101 &#
b100 -
b100 O
b100 6#
b100 g
b100 G"
b100 *#
b1010 y
b1010 )"
b1010 4"
b1010 ?"
b1010 F"
b1010 ##
b1010 %#
b11 ,
b11 P
b11 7#
b11 f
b11 I"
b11 Y"
b11 -#
b1010 x
b1010 ,#
b1010 /#
b1010 2#
b11100 n"
b11100 u"
b11000 k
b11000 l"
b11000 }"
b11000 o"
b11000 r"
b11000 z"
1!
#80
b11000000010001000100011 t
b11000000010001000100011 q"
b11000000010001000100011 s"
b11000000010001000100011 |"
b1010 ^
b1010 L"
b1010 ["
b1010 b"
0!
#85
b10 E
b10 K
b10 ^"
b10 D
b10 H
12
0+
1B
b10001001 <
b10001001 A#
1A
b0 C
b0 G
b0 J
0*
b10001001 =
b10001001 ?#
11
b100 v
b100 H"
b100 _"
b100 S"
b100 U"
b0 U
b0 ""
b0 5"
b0 @"
b0 N"
b0 Z"
b0 1#
b0 4#
b1111 z
b1111 *"
b1111 1"
b1111 C"
b1111 )#
b0 ;
b0 W
b0 $"
b0 3"
b0 :#
b1010 ,"
b1010 /"
b1010 7"
b110 X"
b0 W"
b100 h
b100 O"
b100 `"
b110 $
b110 T
b110 >#
b110 X
b110 K"
b110 c"
b0 &
b0 R
b0 =#
b0 \
b0 M"
b0 a"
b100011 I
b100 V"
b100000 p"
b100000 w"
b100000 y"
b100 ,
b100 P
b100 7#
b100 f
b100 I"
b100 Y"
b100 -#
b0 x
b0 ,#
b0 /#
b0 2#
b101 -
b101 O
b101 6#
b101 g
b101 G"
b101 *#
b0 y
b0 )"
b0 4"
b0 ?"
b0 F"
b0 ##
b0 %#
b1 ~
b1 -"
b1 0"
b1 e"
b110 .
b110 N
b110 <#
b110 i
b110 D"
b110 g"
b11 '
b11 Q
b11 8#
b11 ]
b11 i"
b1010 _
b1010 &"
b1010 6"
b1010 h"
b11000000010001000100011 8
b11000000010001000100011 F
b11000000010001000100011 L
b11000000010001000100011 u
b11000000010001000100011 R"
b11000000010001000100011 T"
b11000000010001000100011 ~"
b11100 j
b11100 P"
b11100 m"
b11100 v"
b11000 l
b11000 Q"
b11000 !#
b100000 n"
b100000 u"
b11100 k
b11100 l"
b11100 }"
b11100 o"
b11100 r"
b11100 z"
1!
#90
b0 Z
b0 J"
b0 \"
b0 d"
b0 ^
b0 L"
b0 ["
b0 b"
b10000000010001110000011 t
b10000000010001110000011 q"
b10000000010001110000011 s"
b10000000010001110000011 |"
0!
#95
17
02
1+
14
b101001011 <
b101001011 A#
13
1*
16
b101001011 =
b101001011 ?#
01
b100 X"
b111 h
b111 O"
b111 `"
b100 $
b100 T
b100 >#
b100 X
b100 K"
b100 c"
b11 I
b100 '"
b100 8"
b100 <"
b0 ,"
b0 /"
b0 7"
b1111 |
b1111 !"
b1111 B"
b1111 +"
b1111 ."
b1111 A"
b10 :
b10 V
b10 #"
b10 >"
b10 ;#
b1111 U
b1111 ""
b1111 5"
b1111 @"
b1111 N"
b1111 Z"
b1111 1#
b1111 4#
b100100 p"
b100100 w"
b100100 y"
b10000000010001110000011 8
b10000000010001110000011 F
b10000000010001110000011 L
b10000000010001110000011 u
b10000000010001110000011 R"
b10000000010001110000011 T"
b10000000010001110000011 ~"
b100000 j
b100000 P"
b100000 m"
b100000 v"
b11100 l
b11100 Q"
b11100 !#
0c
1n
b10 ~
b10 -"
b10 0"
b10 e"
1}
b100 .
b100 N
b100 <#
b100 i
b100 D"
b100 g"
b110 %
b110 S
b110 9#
b110 Y
b110 k"
b0 '
b0 Q
b0 8#
b0 ]
b0 i"
b0 [
b0 %"
b0 :"
b0 j"
b0 _
b0 &"
b0 6"
b0 h"
b100 w
b100 ("
b100 9"
b100 f"
b110 -
b110 O
b110 6#
b110 g
b110 G"
b110 *#
b1111 y
b1111 )"
b1111 4"
b1111 ?"
b1111 F"
b1111 ##
b1111 %#
b101 ,
b101 P
b101 7#
b101 f
b101 I"
b101 Y"
b101 -#
b1111 x
b1111 ,#
b1111 /#
b1111 2#
b100100 n"
b100100 u"
b100000 k
b100000 l"
b100000 }"
b100000 o"
b100000 r"
b100000 z"
1!
#100
b1000000000100111000010000110011 t
b1000000000100111000010000110011 q"
b1000000000100111000010000110011 s"
b1000000000100111000010000110011 |"
0!
